"S.No","Company_Name","Person_Name_","_Number","Telecaller"
"1","ARDOUR_SEEDS_INDIA_PVT_LTD","Sachin","8956976925","Shashikala"
"2","B.Lingamurthy_(Farmer)","murthy","9703374479","Shashikala"
"3","CROPWELL_AGRIGEN_LLP","ahmed","9548922085","Shashikala"
"4","DEVKRIPA_HERBALS","devkripa","9885019344","Shashikala"
"5","DHANA_CROP_SCIENCES_LTD","shravan","7207821212","Shashikala"
"6","DIVYA_SEED_COMPANY_AURANGABAD","manish_rathi","9422216048","Shashikala"
"7","Dr._Marri_Channa_Reddy_Foundation","shiva","9491331591","Shashikala"
"8","Dr.Ashok_Kumar-_ICRISAT","ashok","8142529936","Shashikala"
"9","GM_Seeds","laxman","9909545801","Shashikala"
"10","GOLDEN_VALLEY_SEEDS_COMPANY","Srikanth","9441068197","Shashikala"
"11","Hiranya_Hybrid_Seeds","madhava_reddy","9398256838","Shashikala"
"12","ICAR-Indian_Institute_Of_Oil_Seeds","jawahar","9160451473","Shashikala"
"13","ICRISAT","accounts_","8142529936","Shashikala"
"14","Indigo_Seeds_Pvt_Ltd","amarnath_reddy","9731588676","Shashikala"
"15","J_K_AGRI_GENETICS_LIMITED","satish","9849037772","Shashikala"
"16","JAI_KISAN_AGRO_SEED_FARMS","murtuza","8670105439","Shashikala"
"17","JIVALOGICS_BIOTECH_INDIA_PVT_LTD","pushkar","7411456282","Shashikala"
"18","JWALA_CROP_SCIENCE_PVT_LTD","venu_gopal","9849984315","Shashikala"
"19","K.D_SEEDS_PVT_LTD","kd_seeds","9412257044","Shashikala"
"20","KAILASH_SHIVLAL_CHUMDE","babu_bhai","9960994055","Shashikala"
"21","Kannaiah_Chowdary_Farmer","venkat","8977920626","Shashikala"
"22","Karthikeya_Crop_Technologies","bs_premanth","9849297720","Shashikala"
"23","Kayyum_Khan_Shabbir_Khan_Pathan","shabbir_","9422214177","Shashikala"
"24","KRISHIDHAN_SEEDS_LIMITED","sharma","8956615876","Shashikala"
"25","LAKSHMI_PRASANNA_SEEDS_PVT_LTD","laxmaiah","9440541719","Shashikala"
"26","Lekhana_Agrisciences_Private_Limited","ramakrishna","9652641139","Shashikala"
"27","Madhur_Seeds_Agritech","riyaz_khan","9823104295","Shashikala"
"28","Magic_Bio_Lifesciences_Pvt._Ltd.","accounts_","7989647965","Shashikala"
"29","MAHARASTRA_STATE_SEEDS","ayub","9022300019","Shashikala"
"30","MAHYCO_PRIVATE_LIMITED","gnaneshwar","9975461916","Shashikala"
"31","Nandi_Seeds_Pvt_Ltd","venu_gopal","9989397055","Shashikala"
"32","NEW_SALONI_SEEDS_(INDIA)_PRIVATE","rakesh","8008965073","Shashikala"
"33","NRI_AGRITECH_PVT_LTD","gangadhar","9640516655","Shashikala"
"34","NUTRIHUB_TECHNOLOGY_BUSINESS","sandeep","9948589878","Shashikala"
"35","PADMASHREE_AGRITECH_PVT_LTD","ramchandra_","9963750005","Shashikala"
"36","PAVAN_SAI_HYBRID_SEEDS","devendra_kumar","9849356519","Shashikala"
"37","Prateek_Agri_Genetics_LLP","ankit","8881992945","Shashikala"
"38","PURE_AGRO_HYBRID_SEEDS_PVT_LTD","dilip_kumar","9199821733","Shashikala"
"39","Purnima_Seeds_Pvt_Ltd","srinivas","9642867167","Shashikala"
"40","RAJANI_SEEDS_PRIVATE_LIMITED","cc_patil","9844052569","Shashikala"
"41","Rakshaam_Seeds_Pvt_Ltd","gaurav","7013481634","Shashikala"
"42","RISHI_HYBRID_SEEDS_PVT_LTD","krupakar","9666668093","Shashikala"
"43","RIYAZ_KHAN","riyaz_khan","9823104295","Shashikala"
"44","Sachin_Subharao_Wagh","sachin","9049630788","Shashikala"
"45","Sagi_Seeds_Pvt_Ltd","shiva","9963937676","Shashikala"
"46","SATYAM_SEEDS","mohan_reddy","9515141595","Shashikala"
"47","SAYYAD_ASHPAK","younus_bhai","9422204133","Shashikala"
"48","Sayyed_Gayas_Yusuf","yousuf_","9665173838","Shashikala"
"49","Semena_Hybrid_Seeds_India_Pvt_Ltd","nanda_kishore","8855868406","Shashikala"
"50","SETHU_AGRI_GENETICS_PRIVATE_LIMITED","koteshwar_","9502033326","Shashikala"
"51","SHAAMBHAVI_AGRI_SEEDS_PRIVATE","zamdev","7875135378","Shashikala"
"52","SHAIKH_WASEEM_SHAIKH_HUSAIN","vaibhav","9100440626","Shashikala"
"53","SHREEPA_LOGISTICS_PVT_LTD","venkatrama_rao","9949095961","Shashikala"
"54","SIDDHANT_SEEDS_PVT_LTD","kishore","7796177708","Shashikala"
"55","SRI_VAISHNAVI_AGRO_SCIENCES","appa_rao","9885461049","Shashikala"
"56","Sun_Rich_Agri_Science_Pvt_Ltd","ramesh","8185032345","Shashikala"
"57","SUPER_SEEDS_PVT_LTD","naveen","9467936160","Shashikala"
"58","TAKKAIAH_AND_CO","takka","8328305071","Shashikala"
"59","UNIAGRO_EXPORTS_COMPANY_LLP","sudhakar","9885209898","Shashikala"
"60","VAMSHADHARA_SEEDS_PVT_LTD","sharafat_ali","9948618786","Shashikala"
"61","VIJAY_SEED_SCIENCES","vijay","9849898851","Shashikala"
"62","Vijayendra_Kumar_Kirasur_Farmer","vijay","9731733313","Shashikala"
"63","VIVANTA_SEEDS_PVT_LTD","rajiv","9848014412","Shashikala"
"64","VZEN_AGRI_SCIENCES_PVT_LTD","sekhar","9440051046","Shashikala"
"65","YAGANTI_AGROTECH_PVT_LTD","chandra_sekhar","7729999701","Shashikala"
"66","A_RAMAKRISHNA","ramakrishna","9440873388","Shashikala"
