8949293035,sadgsadgdg,100
2102467921,asdg353,200
8043038401,bhavesh35,154
7865602583,patel35,441
8968174594,asdgasg35,251
3739756794,23523535,842
3102940709,patelss3,5
9852024312,nsnns23,54
8104874378,sdgjsdg6,5
3650487832,sdgjsdg5,56
4138691838,sdgjsdg2,212
2870931034,sdgjsdg34,23
9578350703,sdgjsdg6,56
2679642582,sdgjsdg4,23
7983586124,sdgjsdg7,12
2508083821,sdgjsdg6,456
3501098171,sdgjsdg5,12
2542047051,sdgjsdg2,58
3817032905,sdgjsdg3,2
4532483683,sdgjsdg54,15
8179647953,sdgjsdg7,12
3187283509,sdgjsdg6,54
7140765302,sdgjsdg4,21
6523697467,sdgjsdge,4512
6894612148,sdgjsdgd,15
